%YAML 1.1
%TAG !u! tag:unity3d.com,2011:
--- !u!1045 &1
EditorBuildSettings:
  m_ObjectHideFlags: 0
  serializedVersion: 2
  m_Scenes:
  - enabled: 0
    path: Assets/TouchScript/Examples/Examples.unity
    guid: 7cba6bf72365a4167930fec2f6f39b74
  - enabled: 0
    path: Assets/TouchScript/Examples/Taps/Taps.unity
    guid: 5013fa58cea314376b273bd8905581f4
  - enabled: 0
    path: Assets/TouchScript/Examples/Camera/Camera.unity
    guid: 9bc4a96ba8ead427ab54f883160abc15
  - enabled: 0
    path: Assets/TouchScript/Examples/Photos/Photos.unity
    guid: e43bdd4f3bf144b74b4726208781dd66
  - enabled: 0
    path: Assets/TouchScript/Examples/Checkers/Checkers.unity
    guid: 6ba58961df0a14cad91763f92bda13b9
  - enabled: 0
    path: Assets/TouchScript/Examples/Portal/Portal.unity
    guid: 20ddca9320eeb4eb28b7ce5fcb289923
  - enabled: 0
    path: Assets/TouchScript/Examples/RawInput/RawInput.unity
    guid: 9ee061879a6b743808a9f9056a52d885
  - enabled: 0
    path: Assets/TouchScript/Examples/Colors/Colors.unity
    guid: c56b29ea5ec5a4713b65552d4a8bd9ac
  - enabled: 0
    path: Assets/TouchScript/Examples/Cube/Cube.unity
    guid: 179bea80bb29f49ab9d5761fc9d3738b
  - enabled: 0
    path: Assets/TouchScript/Examples/Multiuser/Multiuser.unity
    guid: 3b34d0a4b336446dd98f5f9951fe6480
  - enabled: 0
    path: 
    guid: 00000000000000000000000000000000
  - enabled: 0
    path: Assets/FacebookSDK/Examples/AccessTokenMenu.unity
    guid: 67cb5b2387b8e4ec9b2fa69ad9510e9b
  - enabled: 0
    path: Assets/FacebookSDK/Examples/AppEvents.unity
    guid: 68ab940fa15e34433bff18301686b080
  - enabled: 0
    path: Assets/FacebookSDK/Examples/AppInvites.unity
    guid: 1beb7e4efae1b4e8d87bb52689540adf
  - enabled: 0
    path: Assets/FacebookSDK/Examples/AppLinks.unity
    guid: 4ac12dfde6570493291366d0ab3eb20d
  - enabled: 0
    path: Assets/FacebookSDK/Examples/AppRequests.unity
    guid: c2250c9c5cf00425384401321f8dffb4
  - enabled: 0
    path: Assets/FacebookSDK/Examples/DialogShare.unity
    guid: 190c345841ecc464e9a122f04369757e
  - enabled: 0
    path: Assets/FacebookSDK/Examples/GraphRequest.unity
    guid: 444ae7ddf432b457a97bfe42021075e3
  - enabled: 0
    path: Assets/FacebookSDK/Examples/LogView.unity
    guid: c07ff0bf6bea74c2eb681ac0cae44265
  - enabled: 0
    path: Assets/FacebookSDK/Examples/MainMenu.unity
    guid: 7c38a8c9adc9d5c4b869612e4033ead8
  - enabled: 0
    path: Assets/FacebookSDK/Examples/Pay.unity
    guid: 3ee189cdb21ea4bdb9d7022a0780c44c
  - enabled: 1
    path: Assets/Scenes/rubik.unity
    guid: ecb686c944e797643b8fcc1983d95b40
  m_configObjects: {}
